%YAML 1.1
%TAG !u! tag:unity3d.com,2011:
--- !u!1045 &1
EditorBuildSettings:
  m_ObjectHideFlags: 0
  serializedVersion: 2
  m_Scenes:
  - enabled: 1
    path: Assets/Scenes/Menus.unity
    guid: 2cda990e2423bbf4892e6590ba056729
  - enabled: 1
    path: Assets/Scenes/Lobby.unity
    guid: dd168aedbe0defa4b9d38d4cdcb00089
  - enabled: 1
    path: Assets/Scenes/CustomerService.unity
    guid: 37acff9b3ca510944beb37dcccb17806
  - enabled: 1
    path: Assets/Scenes/InventoryService.unity
    guid: bb5fcb49226985f44acbcbe2014aedef
  m_configObjects: {}
